// Jest Snapshot v1, https://goo.gl/fbAQLP

exports[`Snapshot 1`] = `
<div>
  <section
    className="sc-ifAKCX jtKYrM"
  >
    <ul
      className="sc-EHOje fQaxkE"
    >
      <li
        className="sc-bxivhb fJIDsu"
      >
        <a
          className="sc-htpNat gHfXiX"
          href="https://www.instagram.com/instagram/"
          target="_blank"
        >
          instagram
        </a>
        Valar Morghulis
      </li>
      <li
        className="sc-bxivhb fJIDsu"
      >
        <a
          className="sc-htpNat gHfXiX"
          href="https://www.instagram.com/instagram/"
          target="_blank"
        >
          instagram
        </a>
        nice pic ❤
      </li>
      <li
        className="sc-bxivhb fJIDsu"
      >
        <a
          className="sc-htpNat gHfXiX"
          href="https://www.instagram.com/instagram/"
          target="_blank"
        >
          instagram
        </a>
        Valar Dohaeris" is High Valyrian, the response phrase to "Valar Morghulis," the title of the Season 2 finale. Commonly used in Braavos, "valar morgulis" means "all men must die" (in the sense of "all men must [eventually] die [sooner or later]"), and "valar dohaeris" means "all men must serve."
      </li>
      <li
        className="sc-bxivhb fJIDsu"
      >
        <a
          className="sc-htpNat gHfXiX"
          href="https://www.instagram.com/instagram/"
          target="_blank"
        >
          instagram
        </a>
        great photo. awesome.
      </li>
      <li
        className="sc-bxivhb fJIDsu"
      >
        <a
          className="sc-htpNat gHfXiX"
          href="https://www.instagram.com/instagram/"
          target="_blank"
        >
          instagram
        </a>
        Lorem Ipsum is simply dummy text of the printing and typesetting industry. Lorem Ipsum has been the industry's standard dummy text ever since the 1500s, when an unknown printer took a galley of type and scrambled it to make a type specimen book. It has survived not only five centuries, but also the leap into electronic typesetting, remaining essentially unchanged. It was popularised in the 1960s with the release of Letraset sheets containing Lorem Ipsum passages, and more recently with desktop publishing software like Aldus PageMaker including versions of Lorem Ipsum
      </li>
    </ul>
  </section>
  <form
    className="sc-bdVaJa gtLOtS"
  >
    <textarea
      className="sc-bwzfXH htdMBB"
      placeholder="Add a comment..."
    />
  </form>
</div>
`;
